{
  "page": 1,
  "per_page": 80,
  "collections": [
    {
      "id": "maakabg",
      "title": "Lonely",
      "description": "",
      "private": false,
      "media_count": 44,
      "photos_count": 39,
      "videos_count": 5
    },
    {
      "id": "ybaop1s",
      "title": "Puppies",
      "description": "",
      "private": false,
      "media_count": 68,
      "photos_count": 58,
      "videos_count": 10
    },
    {
      "id": "w8uxmih",
      "title": "Cinema",
      "description": "",
      "private": false,
      "media_count": 55,
      "photos_count": 43,
      "videos_count": 12
    },
    {
      "id": "3vjmsdl",
      "title": "Pasta",
      "description": "Pasta La Vista, Baby",
      "private": false,
      "media_count": 73,
      "photos_count": 53,
      "videos_count": 20
    },
    {
      "id": "ok1eoji",
      "title": "Holding Hands",
      "description": "",
      "private": false,
      "media_count": 55,
      "photos_count": 44,
      "videos_count": 11
    },
    {
      "id": "m3dinh2",
      "title": "Markets",
      "description": "",
      "private": false,
      "media_count": 51,
      "photos_count": 44,
      "videos_count": 7
    },
    {
      "id": "zibd9da",
      "title": "Diet",
      "description": "",
      "private": false,
      "media_count": 75,
      "photos_count": 54,
      "videos_count": 21
    },
    {
      "id": "de1vdyw",
      "title": "Ice",
      "description": "",
      "private": false,
      "media_count": 46,
      "photos_count": 39,
      "videos_count": 7
    },
    {
      "id": "sb3kbgn",
      "title": "Watches",
      "description": "",
      "private": false,
      "media_count": 54,
      "photos_count": 43,
      "videos_count": 11
    },
    {
      "id": "8pbtfh5",
      "title": "Drawing",
      "description": "",
      "private": false,
      "media_count": 87,
      "photos_count": 71,
      "videos_count": 16
    },
    {
      "id": "shrhxjk",
      "title": "Italy",
      "description": "",
      "private": false,
      "media_count": 59,
      "photos_count": 47,
      "videos_count": 12
    },
    {
      "id": "h0ob95x",
      "title": "Brick Walls",
      "description": "",
      "private": false,
      "media_count": 31,
      "photos_count": 29,
      "videos_count": 2
    },
    {
      "id": "6ac2etx",
      "title": "Chairs",
      "description": "",
      "private": false,
      "media_count": 60,
      "photos_count": 49,
      "videos_count": 11
    },
    {
      "id": "xcwmtib",
      "title": "Glasses",
      "description": "",
      "private": false,
      "media_count": 22,
      "photos_count": 19,
      "videos_count": 3
    },
    {
      "id": "cq7c1sb",
      "title": "Festival",
      "description": "",
      "private": false,
      "media_count": 49,
      "photos_count": 40,
      "videos_count": 9
    },
    {
      "id": "pqulw3h",
      "title": "Gardening",
      "description": "",
      "private": false,
      "media_count": 75,
      "photos_count": 52,
      "videos_count": 23
    },
    {
      "id": "gkot9qu",
      "title": "Talking",
      "description": "",
      "private": false,
      "media_count": 49,
      "photos_count": 41,
      "videos_count": 8
    },
    {
      "id": "fe0ouw1",
      "title": "Christmas Lights",
      "description": "",
      "private": false,
      "media_count": 46,
      "photos_count": 35,
      "videos_count": 11
    },
    {
      "id": "ccpr4i0",
      "title": "Chickens",
      "description": "",
      "private": false,
      "media_count": 32,
      "photos_count": 25,
      "videos_count": 7
    },
    {
      "id": "tblqdxp",
      "title": "Cows",
      "description": "",
      "private": false,
      "media_count": 50,
      "photos_count": 43,
      "videos_count": 7
    },
    {
      "id": "wejcvqy",
      "title": "Cosmetics",
      "description": "",
      "private": false,
      "media_count": 64,
      "photos_count": 53,
      "videos_count": 11
    },
    {
      "id": "xv9zqtm",
      "title": "Wellness",
      "description": "",
      "private": false,
      "media_count": 73,
      "photos_count": 58,
      "videos_count": 15
    },
    {
      "id": "sfaprk5",
      "title": "Golf",
      "description": "",
      "private": false,
      "media_count": 45,
      "photos_count": 34,
      "videos_count": 11
    },
    {
      "id": "oy7n8p7",
      "title": "Angry",
      "description": "",
      "private": false,
      "media_count": 30,
      "photos_count": 23,
      "videos_count": 7
    },
    {
      "id": "ritss5w",
      "title": "Mockups",
      "description": "",
      "private": false,
      "media_count": 77,
      "photos_count": 65,
      "videos_count": 12
    },
    {
      "id": "2i3tctx",
      "title": "Dangerous",
      "description": "",
      "private": false,
      "media_count": 20,
      "photos_count": 19,
      "videos_count": 1
    },
    {
      "id": "ymtxxtq",
      "title": "Gaming",
      "description": "",
      "private": false,
      "media_count": 63,
      "photos_count": 45,
      "videos_count": 18
    },
    {
      "id": "sj7zbuy",
      "title": "Djs",
      "description": "",
      "private": false,
      "media_count": 46,
      "photos_count": 32,
      "videos_count": 14
    },
    {
      "id": "fria1bo",
      "title": "Listen To A Podcast",
      "description": "",
      "private": false,
      "media_count": 54,
      "photos_count": 41,
      "videos_count": 13
    },
    {
      "id": "g5o0cec",
      "title": "Rocks",
      "description": "",
      "private": false,
      "media_count": 41,
      "photos_count": 31,
      "videos_count": 10
    },
    {
      "id": "dteroz7",
      "title": "Dream",
      "description": "",
      "private": false,
      "media_count": 70,
      "photos_count": 56,
      "videos_count": 14
    },
    {
      "id": "ue6c9mk",
      "title": "Lab Work",
      "description": "",
      "private": false,
      "media_count": 38,
      "photos_count": 23,
      "videos_count": 15
    },
    {
      "id": "aynxfyc",
      "title": "Cross",
      "description": "",
      "private": false,
      "media_count": 35,
      "photos_count": 27,
      "videos_count": 8
    },
    {
      "id": "zcvcvam",
      "title": "Graduate",
      "description": "",
      "private": false,
      "media_count": 43,
      "photos_count": 32,
      "videos_count": 11
    },
    {
      "id": "yuspfms",
      "title": "Studio",
      "description": "",
      "private": false,
      "media_count": 22,
      "photos_count": 18,
      "videos_count": 4
    },
    {
      "id": "xitzwo8",
      "title": "Doors",
      "description": "",
      "private": false,
      "media_count": 51,
      "photos_count": 42,
      "videos_count": 9
    },
    {
      "id": "3sjmpm8",
      "title": "Supermarkets",
      "description": "",
      "private": false,
      "media_count": 53,
      "photos_count": 42,
      "videos_count": 11
    },
    {
      "id": "khhbuhu",
      "title": "Raw Portraits",
      "description": "",
      "private": false,
      "media_count": 45,
      "photos_count": 45,
      "videos_count": 0
    },
    {
      "id": "unvpobo",
      "title": "Birthday Cakes",
      "description": "",
      "private": false,
      "media_count": 68,
      "photos_count": 60,
      "videos_count": 8
    },
    {
      "id": "bxf9325",
      "title": "Marble",
      "description": "",
      "private": false,
      "media_count": 45,
      "photos_count": 39,
      "videos_count": 6
    },
    {
      "id": "gvb8z4b",
      "title": "Headphones",
      "description": "",
      "private": false,
      "media_count": 34,
      "photos_count": 25,
      "videos_count": 9
    },
    {
      "id": "6b2jyu2",
      "title": "Concerts",
      "description": "",
      "private": false,
      "media_count": 51,
      "photos_count": 42,
      "videos_count": 9
    },
    {
      "id": "ifgmyzl",
      "title": "Shops",
      "description": "",
      "private": false,
      "media_count": 44,
      "photos_count": 35,
      "videos_count": 9
    },
    {
      "id": "reimxkc",
      "title": "Pregnancy",
      "description": "",
      "private": false,
      "media_count": 50,
      "photos_count": 39,
      "videos_count": 11
    },
    {
      "id": "eqmlpo6",
      "title": "Flower Gardens",
      "description": "",
      "private": false,
      "media_count": 53,
      "photos_count": 41,
      "videos_count": 12
    },
    {
      "id": "aq1zymx",
      "title": "Sofas",
      "description": "",
      "private": false,
      "media_count": 51,
      "photos_count": 43,
      "videos_count": 8
    },
    {
      "id": "abqk706",
      "title": "Chefs",
      "description": "",
      "private": false,
      "media_count": 51,
      "photos_count": 41,
      "videos_count": 10
    },
    {
      "id": "zwykscd",
      "title": "Hiking",
      "description": "",
      "private": false,
      "media_count": 63,
      "photos_count": 50,
      "videos_count": 13
    },
    {
      "id": "gr0a7ek",
      "title": "China",
      "description": "",
      "private": false,
      "media_count": 63,
      "photos_count": 53,
      "videos_count": 10
    },
    {
      "id": "eps9oyr",
      "title": "Corporate",
      "description": "",
      "private": false,
      "media_count": 56,
      "photos_count": 43,
      "videos_count": 13
    },
    {
      "id": "4raypuh",
      "title": "Sustainability",
      "description": "",
      "private": false,
      "media_count": 72,
      "photos_count": 61,
      "videos_count": 11
    },
    {
      "id": "g1evaxd",
      "title": "Dentist",
      "description": "",
      "private": false,
      "media_count": 33,
      "photos_count": 25,
      "videos_count": 8
    },
    {
      "id": "u4rcwkd",
      "title": "Notebooks",
      "description": "",
      "private": false,
      "media_count": 48,
      "photos_count": 41,
      "videos_count": 7
    },
    {
      "id": "fppfy6o",
      "title": "Boats",
      "description": "",
      "private": false,
      "media_count": 62,
      "photos_count": 50,
      "videos_count": 12
    },
    {
      "id": "1fiiqaf",
      "title": "Tv",
      "description": "",
      "private": false,
      "media_count": 59,
      "photos_count": 46,
      "videos_count": 13
    },
    {
      "id": "usage2a",
      "title": "Crowds",
      "description": "",
      "private": false,
      "media_count": 31,
      "photos_count": 26,
      "videos_count": 5
    },
    {
      "id": "qf7vkek",
      "title": "E Commerce",
      "description": "",
      "private": false,
      "media_count": 41,
      "photos_count": 33,
      "videos_count": 8
    },
    {
      "id": "1m51en3",
      "title": "Professionals",
      "description": "",
      "private": false,
      "media_count": 37,
      "photos_count": 26,
      "videos_count": 11
    },
    {
      "id": "1fszuma",
      "title": "Guitars",
      "description": "",
      "private": false,
      "media_count": 39,
      "photos_count": 31,
      "videos_count": 8
    },
    {
      "id": "uard3w7",
      "title": "Eagles",
      "description": "",
      "private": false,
      "media_count": 29,
      "photos_count": 22,
      "videos_count": 7
    },
    {
      "id": "yuwssks",
      "title": "Robots",
      "description": "",
      "private": false,
      "media_count": 39,
      "photos_count": 32,
      "videos_count": 7
    },
    {
      "id": "lepwkit",
      "title": "Love Stories",
      "description": "",
      "private": false,
      "media_count": 57,
      "photos_count": 47,
      "videos_count": 10
    },
    {
      "id": "7mumha4",
      "title": "Old Men",
      "description": "",
      "private": false,
      "media_count": 45,
      "photos_count": 37,
      "videos_count": 8
    },
    {
      "id": "nnd4bem",
      "title": "Pianos",
      "description": "",
      "private": false,
      "media_count": 54,
      "photos_count": 44,
      "videos_count": 10
    },
    {
      "id": "q0xwrpi",
      "title": "Trucks",
      "description": "",
      "private": false,
      "media_count": 43,
      "photos_count": 35,
      "videos_count": 8
    },
    {
      "id": "l2hqsem",
      "title": "Photo Editing",
      "description": "",
      "private": false,
      "media_count": 31,
      "photos_count": 24,
      "videos_count": 7
    },
    {
      "id": "xx2ix4a",
      "title": "Muslim",
      "description": "",
      "private": false,
      "media_count": 66,
      "photos_count": 56,
      "videos_count": 10
    },
    {
      "id": "ok66cfl",
      "title": "Scary",
      "description": "",
      "private": false,
      "media_count": 57,
      "photos_count": 45,
      "videos_count": 12
    },
    {
      "id": "apdzjzg",
      "title": "Groups",
      "description": "",
      "private": false,
      "media_count": 46,
      "photos_count": 36,
      "videos_count": 10
    },
    {
      "id": "ovcsfkz",
      "title": "Motorcycles",
      "description": "",
      "private": false,
      "media_count": 43,
      "photos_count": 34,
      "videos_count": 9
    },
    {
      "id": "5zuqlit",
      "title": "Llandudno Photo Walk",
      "description": "",
      "private": false,
      "media_count": 88,
      "photos_count": 87,
      "videos_count": 1
    },
    {
      "id": "os68h3c",
      "title": "Paint",
      "description": "",
      "private": false,
      "media_count": 68,
      "photos_count": 57,
      "videos_count": 11
    },
    {
      "id": "nskdfu6",
      "title": "Energy",
      "description": "",
      "private": false,
      "media_count": 29,
      "photos_count": 23,
      "videos_count": 6
    },
    {
      "id": "fonliqi",
      "title": "Burgers",
      "description": "",
      "private": false,
      "media_count": 61,
      "photos_count": 52,
      "videos_count": 9
    },
    {
      "id": "6ldo1ne",
      "title": "Clocks",
      "description": "",
      "private": false,
      "media_count": 54,
      "photos_count": 45,
      "videos_count": 9
    },
    {
      "id": "gffxxh9",
      "title": "Army",
      "description": "",
      "private": false,
      "media_count": 47,
      "photos_count": 41,
      "videos_count": 6
    },
    {
      "id": "f60heza",
      "title": "Medicine",
      "description": "",
      "private": false,
      "media_count": 29,
      "photos_count": 24,
      "videos_count": 5
    },
    {
      "id": "ufftam7",
      "title": "Celebrate",
      "description": "",
      "private": false,
      "media_count": 58,
      "photos_count": 51,
      "videos_count": 7
    },
    {
      "id": "uszzjpy",
      "title": "Calendars",
      "description": "",
      "private": false,
      "media_count": 53,
      "photos_count": 45,
      "videos_count": 8
    },
    {
      "id": "vsfsfqx",
      "title": "Google",
      "description": "",
      "private": false,
      "media_count": 27,
      "photos_count": 22,
      "videos_count": 5
    }
  ],
  "total_results": 879,
  "next_page": "https://api.pexels.com/v1/collections/featured/?page=2&per_page=80"
}
